{"static":
[
{"mac": "000D6F000099265F", "category": "network", "name": "plug_1_miguel", "loginterval": "1", "always_on": "True", "production": "False", "location": "living"},
{"mac": "000D6F0000994AE6", "category": "network", "name": "plug_2", "loginterval": "1", "always_on": "True", "production": "False", "location": "living"},
{"mac": "000D6F0000994B00", "category": "network", "name": "plug_3", "loginterval": "1", "always_on": "True", "production": "False", "location": "living"},
{"mac": "000D6F0000B19D4C", "category": "network", "name": "extensao_ana", "loginterval": "1", "always_on": "True", "production": "False", "location": "living"},
{"mac": "000D6F0000B1BB5A", "category": "network", "name": "plug_5_lucas", "loginterval": "1", "always_on": "True", "production": "False", "location": "living"},
{"mac": "000D6F0000B1BBA8", "category": "network", "name": "2_mesa", "loginterval": "1", "always_on": "True", "production": "False", "location": "living"},
{"mac": "000D6F0000B1D7B2", "category": "network", "name": "plug_7", "loginterval": "1", "always_on": "True", "production": "False", "location": "living"},
{"mac": "000D6F0000B1DB80", "category": "network", "name": "plug_8", "loginterval": "1", "always_on": "True", "production": "False", "location": "living"},
{"mac": "000D6F0000B834F1", "category": "network", "name": "2_mesa2", "loginterval": "1", "always_on": "True", "production": "False", "location": "living"},

{"mac": "000D6F000261B237", "category": "network", "name": "_Printer1", "loginterval": "1", "always_on": "True", "production": "False", "location": "living"},
{"mac": "000D6F00025F685C", "category": "network", "name": "_3_P", "loginterval": "1", "always_on": "True", "production": "False", "location": "living"},
{"mac": "000D6F00025F69A2", "category": "network", "name": "_2_chao1", "loginterval": "1", "always_on": "True", "production": "False", "location": "living"},
{"mac": "000D6F00025F6854", "category": "network", "name": "_2_chao2", "loginterval": "1", "always_on": "True", "production": "False", "location": "living"},
{"mac": "000D6F00026207E2", "category": "network", "name": "_2_P", "loginterval": "1", "always_on": "True", "production": "False", "location": "living"},
{"mac": "000D6F000261B52A", "category": "network", "name": "_3_Filipe", "loginterval": "1", "always_on": "True", "production": "False", "location": "living"},
{"mac": "000D6F00025F6714", "category": "network", "name": "_Natercia", "loginterval": "1", "always_on": "True", "production": "False", "location": "living"},
{"mac": "000D6F000261B257", "category": "network", "name": "_lab_7 5", "loginterval": "1", "always_on": "True", "production": "False", "location": "living"},
{"mac": "000D6F000261B01C", "category": "network", "name": "_9_P", "loginterval": "1", "always_on": "True", "production": "False", "location": "living"},
{"mac": "000D6F0000B1DB7A", "category": "network", "name": "_9_Mesa", "loginterval": "1", "always_on": "True", "production": "False", "location": "living"}
]
}
